Analysis on QS University Rankings
…
Rows: 6482 Columns: 15

── Column specification ────────────────────────────────────────────────────────
Delimiter: ","
chr (10): university, rank_display, link, country, city, region, logo, type,...
dbl  (3): year, score, student_faculty_ratio
num  (2): international_students, faculty_count

ℹ Use `spec()` to retrieve the full column specification for this data.
ℹ Specify the column types or set `show_col_types = FALSE` to quiet this message.

df

# A tibble: 6,482 × 15
   university  year rank_…¹ score link  country city  region logo  type  resea…²
   <chr>      <dbl> <chr>   <dbl> <chr> <chr>   <chr> <chr>  <chr> <chr> <chr>  
 1 Massachus…  2017 1       100   http… United… Camb… North… http… Priv… Very H…
 2 Stanford …  2017 2        98.7 http… United… Stan… North… http… Priv… Very H…
 3 Harvard U…  2017 3        98.3 http… United… Camb… North… http… Priv… Very H…
 4 Universit…  2017 4        97.2 http… United… Camb… Europe http… Publ… Very h…
 5 Californi…  2017 5        96.9 http… United… Pasa… North… http… Priv… Very H…
 6 Universit…  2017 6        96.8 http… United… Oxfo… Europe http… Publ… Very H…
 7 UCL         2017 7        95.6 http… United… Lond… Europe http… Publ… Very H…
 8 ETH Zuric…  2017 8        94.2 http… Switze… Züri… Europe http… Publ… Very H…
 9 Imperial …  2017 9        94.1 http… United… Lond… Europe http… Publ… Very H…
10 Universit…  2017 10       93   http… United… Chic… North… http… Priv… Very H…
# … with 6,472 more rows, 4 more variables: student_faculty_ratio <dbl>,
#   international_students <dbl>, size <chr>, faculty_count <dbl>, and
#   abbreviated variable names ¹​rank_display, ²​research_output
…
